\relax 
\catcode `"\active 
\catcode `<\active 
\catcode `>\active 
\@nameuse{es@quoting}
\gdef\pointsofq@i{0}
\gdef\bonuspointsofq@i{0}
\gdef\pointsofq@ii{0}
\gdef\bonuspointsofq@ii{0}
\gdef\pointsofq@iii{0}
\gdef\bonuspointsofq@iii{0}
\gdef\pointsofq@iv{0}
\gdef\bonuspointsofq@iv{0}
\gdef\pointsofq@v{0}
\gdef\bonuspointsofq@v{0}
\babel@aux{spanish}{}
\babel@aux{spanish}{}
\PgInfo{question@1}{1}
\PgInfo{question1@object1}{1}
\newlabel{question@1}{{1}{1}}
\PgInfo{part@1@1}{1}
\PgInfo{question1@object2}{1}
\newlabel{part@1@1}{{a}{1}}
\PgInfo{part@1@2}{1}
\PgInfo{question1@object3}{1}
\newlabel{part@1@2}{{b}{1}}
\PgInfo{part@1@3}{1}
\PgInfo{question1@object4}{1}
\newlabel{part@1@3}{{c}{1}}
\PgInfo{part@1@4}{1}
\PgInfo{question1@object5}{1}
\newlabel{part@1@4}{{d}{1}}
\PgInfo{part@1@5}{1}
\PgInfo{question1@object6}{1}
\newlabel{part@1@5}{{e}{1}}
\PgInfo{part@1@6}{1}
\PgInfo{question1@object7}{1}
\newlabel{part@1@6}{{f}{1}}
\PgInfo{part@1@7}{1}
\PgInfo{question1@object8}{1}
\newlabel{part@1@7}{{g}{1}}
\PgInfo{part@1@8}{1}
\PgInfo{question1@object9}{1}
\newlabel{part@1@8}{{h}{1}}
\PgInfo{part@1@9}{1}
\PgInfo{question1@object10}{1}
\newlabel{part@1@9}{{i}{1}}
\PgInfo{part@1@10}{1}
\PgInfo{question1@object11}{1}
\newlabel{part@1@10}{{j}{1}}
\PgInfo{part@1@11}{1}
\PgInfo{question1@object12}{1}
\newlabel{part@1@11}{{k}{1}}
\PgInfo{part@1@12}{1}
\PgInfo{question1@object13}{1}
\newlabel{part@1@12}{{l}{1}}
\PgInfo{part@1@13}{1}
\PgInfo{question1@object14}{1}
\newlabel{part@1@13}{{m}{1}}
\PgInfo{part@1@14}{1}
\PgInfo{question1@object15}{1}
\newlabel{part@1@14}{{n}{1}}
\PgInfo{part@1@15}{1}
\PgInfo{question1@object16}{1}
\newlabel{part@1@15}{{\~n}{1}}
\PgInfo{question@2}{1}
\PgInfo{question2@object1}{1}
\newlabel{question@2}{{2}{1}}
\PgInfo{part@2@1}{1}
\PgInfo{question2@object2}{1}
\newlabel{part@2@1}{{a}{1}}
\PgInfo{part@2@2}{1}
\PgInfo{question2@object3}{1}
\newlabel{part@2@2}{{b}{1}}
\PgInfo{part@2@3}{1}
\PgInfo{question2@object4}{1}
\newlabel{part@2@3}{{c}{1}}
\PgInfo{part@2@4}{1}
\PgInfo{question2@object5}{1}
\newlabel{part@2@4}{{d}{1}}
\PgInfo{part@2@5}{1}
\PgInfo{question2@object6}{1}
\newlabel{part@2@5}{{e}{1}}
\PgInfo{part@2@6}{1}
\PgInfo{question2@object7}{1}
\newlabel{part@2@6}{{f}{1}}
\PgInfo{part@2@7}{1}
\PgInfo{question2@object8}{1}
\newlabel{part@2@7}{{g}{1}}
\PgInfo{part@2@8}{1}
\PgInfo{question2@object9}{1}
\newlabel{part@2@8}{{h}{1}}
\PgInfo{part@2@9}{1}
\PgInfo{question2@object10}{1}
\newlabel{part@2@9}{{i}{1}}
\PgInfo{part@2@10}{1}
\PgInfo{question2@object11}{1}
\newlabel{part@2@10}{{j}{1}}
\PgInfo{part@2@11}{1}
\PgInfo{question2@object12}{1}
\newlabel{part@2@11}{{k}{1}}
\PgInfo{part@2@12}{1}
\PgInfo{question2@object13}{1}
\newlabel{part@2@12}{{l}{1}}
\PgInfo{part@2@13}{1}
\PgInfo{question2@object14}{1}
\newlabel{part@2@13}{{m}{1}}
\PgInfo{part@2@14}{1}
\PgInfo{question2@object15}{1}
\newlabel{part@2@14}{{n}{1}}
\PgInfo{part@2@15}{1}
\PgInfo{question2@object16}{1}
\newlabel{part@2@15}{{\~n}{1}}
\PgInfo{question@3}{1}
\PgInfo{question3@object1}{1}
\newlabel{question@3}{{3}{1}}
\PgInfo{question@4}{1}
\PgInfo{question4@object1}{1}
\newlabel{question@4}{{4}{1}}
\PgInfo{question@5}{1}
\PgInfo{question5@object1}{1}
\newlabel{question@5}{{5}{1}}
\gdef\pointsofq@vi{0}
\gdef\bonuspointsofq@vi{0}
\gdef\pointsofq@vii{0}
\gdef\bonuspointsofq@vii{0}
\gdef\pointsofq@viii{0}
\gdef\bonuspointsofq@viii{0}
\PgInfo{question@6}{2}
\PgInfo{question6@object1}{2}
\newlabel{question@6}{{6}{2}}
\PgInfo{question@7}{2}
\PgInfo{question7@object1}{2}
\newlabel{question@7}{{7}{2}}
\PgInfo{question@8}{2}
\PgInfo{question8@object1}{2}
\newlabel{question@8}{{8}{2}}
\gdef\exam@lastpage{2}
\gdef\exam@lastcoverpage{0}
\gdef\exam@totalpages{2}
\gdef\exam@numpoints{0}
\gdef\exam@numbonuspoints{0}
\gdef\exam@numquestions{8}
\gdef\exam@numparts{30}
\gdef\exam@numsubparts{0}
\gdef\exam@numsubsubparts{0}
\gdef\lastpage@withpoints{0}
\gdef\lastpage@withbonuspoints{0}
